-,CR,FS,LMC
muc,-4.54442175803393,-4.5161085932456,-6.5513668272281
-muc,-4.54395295599936,-4.515614866346216,-6.5529168892859
yc,-5.1158313081738,-5.16231518052196,-6.723812857245
-yc,-5.1158293431994,-5.16231496121355,-6.723832358582
mc+yc,-4.44086949764089,-4.427349307391325,-6.3280445943661
-muc+yc,-4.67943419992026,-4.62663466512306,-7.040558567069
muc-yc,-4.6795006998938,-4.62676504742515,-7.035891424009
-muc-yc,-4.4408377178551,-4.427275461231959,-6.3290021513414
mup,-7.79924748653,-7.77093516181,-9.807420247
-mup,-7.79924752919,-7.77093517113,-9.807421129
yp,-8.2919215854,-8.33840632997,-9.89991386
-yp,-8.2919215841,-8.33840632981,-9.899913873
mp+yp,-7.67814500766,-7.66688343922,-9.5501793439
-mup+yp,-7.96776638291,-7.90804402054,-10.524523675
mup-yp,-7.96776623085,-7.90804393076,-10.524519162
-mup-yp,-7.67814508994,-7.66688349624,-9.5501798516