-,Vrel,Srel,Drel,Frel
1,-14.532841267887191,-15.758724861166622,-15.048273354925817,-13.722185364898936
2,-12.267025114855924,-13.492908708115271,-12.7824572018855,-11.456368528042134
3,-10.256209487857202,-11.482093079066587,-10.771641573962883,-9.445552897783543