-,Vrel,Srel,Drel,Frel
1,-2.931964665509724e-15,-1.7429107109243058e-16,8.948013797157009e-16,-1.8958965448646274e-14
2,-5.407230525178028e-13,-3.214336144657127e-14,1.6502236167398805e-13,-3.496483410023806e-12
3,-5.543582462061406e-11,-3.295390769790407e-12,1.6918366393115552e-11,-3.58465283955137e-10