-,Vrel,Srel,Drel,Frel
1,-0.02753618031010407,-0.006452752780114048,0.01756347751453625,-0.09960732234807224
2,-0.0012591804360104302,-0.00040673702371158923,0.0009151801988044711,-0.00513430049025096
3,-1.3286729476594786e-6,-4.4301863932999376e-7,9.715894612237306e-7,-5.735876062865804e-6