entropiasrel,mu,-mu,y,-y,mu+y,-mu+y,mu-y,-mu-y
v,-5.972244535115765e-10,5.97224486144747e-10,-6.838680933347109e-10,6.838680799116593e-10,-1.2810925614626143e-9,-8.664359257363691e-11,8.664364101640954e-11,1.2810925514400796e-9
s,-1.9914155290638495e-10,1.9914157223074263e-10,-4.065264185623091e-11,4.065263627728602e-11,-2.3979419912158517e-10,1.5848893473348106e-10,-1.584889122701298e-10,2.397942041490595e-10
d,4.367221494176257e-10,-4.3672217593524637e-10,2.087085621716426e-10,-2.08708547012727e-10,6.454307214924612e-10,-2.2801362366679668e-10,2.280135925017062e-10,-6.454307130447809e-10
f,7.127347936695115e-9,-7.127699248090424e-9,-4.422103741981604e-9,4.422103764757769e-9,2.7052442156099397e-9,-1.154980301096681e-8,1.1549451680556456e-8,-2.7055954624378777e-9
