-,Vrel,Srel,Drel,Frel
1,-11.517829279064227,-12.743712872230427,-12.033261366051821,-10.707172688541917
2,-9.252013122566654,-10.477896694943624,-9.76744520018478,-8.44135653642446
3,-7.241197141744421,-8.467078592063531,-7.756628262974208,-6.430541002702984