-,Vrel,Srel,Drel,Frel
muc,-5.269726512685151,-5.746784191190523,-5.405670740281558,-4.63498791163144
-muc,-5.269512938789908,-5.746407696020322,-5.405433408525784,-4.63446461733765
yc,-5.988930010239663,-7.214775298559573,-6.504344833315305,-5.178281490647398
-yc,-5.988942796822401,-7.214864698843619,-6.504392148817634,-5.178278135379254
mc+yc,-5.19383933756119,-5.732232419902081,-5.3723637259010415,-4.52526431950127
-muc+yc,-5.361438441769613,-5.761421216914533,-5.441455934382842,-4.78069316211984
muc-yc,-5.361738780279246,-5.76183734707865,-5.4417418119258,-4.780694505196286
-muc-yc,-5.19368881670151,-5.731898834657116,-5.372174758407203,-4.525263573618034
mup,-8.524892461406491,-9.001868190514301,-8.660824829631771,-7.889737120311026
-mup,-8.524892342754237,-9.001867979798595,-8.660824697780706,-7.889737202940008
yp,-9.165027658311013,-10.390911226052655,-9.680459733840049,-8.35437107314839
-yp,-9.165027666835401,-10.390911285652843,-9.680459765383718,-8.354371070905648
mp+yp,-8.435335106375087,-8.984489259210575,-8.621180893518407,-7.761642678023064
-mup+yp,-8.637846624812555,-9.019971419904982,-8.704454311349828,-8.072209432255299
mup-yp,-8.637846803749564,-9.019971656874677,-8.704454475579219,-8.072209188218677
-mup-yp,-8.435335028717477,-8.984489077364957,-8.621180793900036,-7.761642797391205