-,max,heis,shan,fish
muenf,-2.0801910904682397663959367758e-10,8.0625304e-11,1.0950155563e-10,-3.4803678642e-10
yenf,-1.6303476008622076305625555456e-10,2.0516043e-11,4.96746255e-12,-1.326631126e-10
muenf+yenf,-3.7105386877060633483532060867e-10,1.01141346e-10,1.1446901804e-10,-4.806998989e-10