-,max,heis,shan,fish
1,1.114971639554559e-14,-1.466e-15,-3.55e-16,9.47948e-15
2,2.14798094335126382e-12,-2.70362e-13,-6.54615e-14,1.74824171e-12
3,2.2026533126950583019e-10,-2.7717912e-11,-6.7112208e-12,1.7923264203e-10