-,max,heis,shan,fish
musilk,3.8522057006588466341261118309e-10,-1.49306115e-10,-2.0278065097e-10,6.4451597729e-10
ysilk,1.35862299793773814464552643698e-9,-1.70967023e-10,-4.139552282e-11,1.1055259388e-9
musilk+ysilk,1.7438435733686165496858354257e-9,-3.2027314e-10,-2.44176176e-10,1.7500419182e-9