-,max,heis,shan,fish
1,0.06328706886624846,-0.01386419815022641,-0.01305536909929983,0.05386267383898289
2,0.001686295178410922,-0.0006297885348045007,-0.0008279964138482081,0.002577078122063563
3,1.714111988312775e-6,-6.643366945013611e-7,-9.022282297997589e-7,2.867950369094703e-6